%YAML 1.1
%TAG !u! tag:unity3d.com,2011:
--- !u!1001 &3505625799153119718
PrefabInstance:
  m_ObjectHideFlags: 0
  serializedVersion: 2
  m_Modification:
    m_TransformParent: {fileID: 0}
    m_Modifications:
    - target: {fileID: 494488123748906584, guid: 2b76ccb8a4504484e939444d20d98d95, type: 3}
      propertyPath: m_Mesh
      value: 
      objectReference: {fileID: 0}
    - target: {fileID: 494488123748906590, guid: 2b76ccb8a4504484e939444d20d98d95, type: 3}
      propertyPath: m_textAlignment
      value: 65535
      objectReference: {fileID: 0}
    - target: {fileID: 494488123748906590, guid: 2b76ccb8a4504484e939444d20d98d95, type: 3}
      propertyPath: m_TextStyleHashCode
      value: -1183493901
      objectReference: {fileID: 0}
    - target: {fileID: 494488123748906590, guid: 2b76ccb8a4504484e939444d20d98d95, type: 3}
      propertyPath: m_VerticalAlignment
      value: 512
      objectReference: {fileID: 0}
    - target: {fileID: 494488123748906590, guid: 2b76ccb8a4504484e939444d20d98d95, type: 3}
      propertyPath: m_HorizontalAlignment
      value: 2
      objectReference: {fileID: 0}
    - target: {fileID: 494488124684854792, guid: 2b76ccb8a4504484e939444d20d98d95, type: 3}
      propertyPath: m_Mesh
      value: 
      objectReference: {fileID: 0}
    - target: {fileID: 494488124684854798, guid: 2b76ccb8a4504484e939444d20d98d95, type: 3}
      propertyPath: m_textAlignment
      value: 65535
      objectReference: {fileID: 0}
    - target: {fileID: 494488124684854798, guid: 2b76ccb8a4504484e939444d20d98d95, type: 3}
      propertyPath: m_TextStyleHashCode
      value: -1183493901
      objectReference: {fileID: 0}
    - target: {fileID: 494488124684854798, guid: 2b76ccb8a4504484e939444d20d98d95, type: 3}
      propertyPath: m_VerticalAlignment
      value: 512
      objectReference: {fileID: 0}
    - target: {fileID: 494488124684854798, guid: 2b76ccb8a4504484e939444d20d98d95, type: 3}
      propertyPath: m_HorizontalAlignment
      value: 2
      objectReference: {fileID: 0}
    - target: {fileID: 494488125162547304, guid: 2b76ccb8a4504484e939444d20d98d95, type: 3}
      propertyPath: m_textAlignment
      value: 65535
      objectReference: {fileID: 0}
    - target: {fileID: 494488125162547304, guid: 2b76ccb8a4504484e939444d20d98d95, type: 3}
      propertyPath: m_TextStyleHashCode
      value: -1183493901
      objectReference: {fileID: 0}
    - target: {fileID: 494488125162547304, guid: 2b76ccb8a4504484e939444d20d98d95, type: 3}
      propertyPath: m_VerticalAlignment
      value: 512
      objectReference: {fileID: 0}
    - target: {fileID: 494488125162547304, guid: 2b76ccb8a4504484e939444d20d98d95, type: 3}
      propertyPath: m_HorizontalAlignment
      value: 2
      objectReference: {fileID: 0}
    - target: {fileID: 494488125162547306, guid: 2b76ccb8a4504484e939444d20d98d95, type: 3}
      propertyPath: m_Mesh
      value: 
      objectReference: {fileID: 0}
    - target: {fileID: 494488125205247461, guid: 2b76ccb8a4504484e939444d20d98d95, type: 3}
      propertyPath: m_textAlignment
      value: 65535
      objectReference: {fileID: 0}
    - target: {fileID: 494488125205247461, guid: 2b76ccb8a4504484e939444d20d98d95, type: 3}
      propertyPath: m_TextStyleHashCode
      value: -1183493901
      objectReference: {fileID: 0}
    - target: {fileID: 494488125205247461, guid: 2b76ccb8a4504484e939444d20d98d95, type: 3}
      propertyPath: m_VerticalAlignment
      value: 512
      objectReference: {fileID: 0}
    - target: {fileID: 494488125205247461, guid: 2b76ccb8a4504484e939444d20d98d95, type: 3}
      propertyPath: m_HorizontalAlignment
      value: 2
      objectReference: {fileID: 0}
    - target: {fileID: 494488125205247463, guid: 2b76ccb8a4504484e939444d20d98d95, type: 3}
      propertyPath: m_Mesh
      value: 
      objectReference: {fileID: 0}
    - target: {fileID: 683731866780316539, guid: 2b76ccb8a4504484e939444d20d98d95, type: 3}
      propertyPath: m_Name
      value: HandMenu_Large_AutoWorldLock_On_HandDrop
      objectReference: {fileID: 0}
    - target: {fileID: 1053862263645450672, guid: 2b76ccb8a4504484e939444d20d98d95, type: 3}
      propertyPath: m_Mesh
      value: 
      objectReference: {fileID: 0}
    - target: {fileID: 1053862263645450702, guid: 2b76ccb8a4504484e939444d20d98d95, type: 3}
      propertyPath: m_textAlignment
      value: 65535
      objectReference: {fileID: 0}
    - target: {fileID: 1053862263645450702, guid: 2b76ccb8a4504484e939444d20d98d95, type: 3}
      propertyPath: m_TextStyleHashCode
      value: -1183493901
      objectReference: {fileID: 0}
    - target: {fileID: 1053862263645450702, guid: 2b76ccb8a4504484e939444d20d98d95, type: 3}
      propertyPath: m_VerticalAlignment
      value: 512
      objectReference: {fileID: 0}
    - target: {fileID: 1053862263649643026, guid: 2b76ccb8a4504484e939444d20d98d95, type: 3}
      propertyPath: m_textAlignment
      value: 65535
      objectReference: {fileID: 0}
    - target: {fileID: 1053862263649643026, guid: 2b76ccb8a4504484e939444d20d98d95, type: 3}
      propertyPath: m_TextStyleHashCode
      value: -1183493901
      objectReference: {fileID: 0}
    - target: {fileID: 1053862263649643026, guid: 2b76ccb8a4504484e939444d20d98d95, type: 3}
      propertyPath: m_VerticalAlignment
      value: 512
      objectReference: {fileID: 0}
    - target: {fileID: 1053862263649643116, guid: 2b76ccb8a4504484e939444d20d98d95, type: 3}
      propertyPath: m_Mesh
      value: 
      objectReference: {fileID: 0}
    - target: {fileID: 1053862264299300538, guid: 2b76ccb8a4504484e939444d20d98d95, type: 3}
      propertyPath: m_textAlignment
      value: 65535
      objectReference: {fileID: 0}
    - target: {fileID: 1053862264299300538, guid: 2b76ccb8a4504484e939444d20d98d95, type: 3}
      propertyPath: m_TextStyleHashCode
      value: -1183493901
      objectReference: {fileID: 0}
    - target: {fileID: 1053862264299300538, guid: 2b76ccb8a4504484e939444d20d98d95, type: 3}
      propertyPath: m_VerticalAlignment
      value: 512
      objectReference: {fileID: 0}
    - target: {fileID: 1053862264299300548, guid: 2b76ccb8a4504484e939444d20d98d95, type: 3}
      propertyPath: m_Mesh
      value: 
      objectReference: {fileID: 0}
    - target: {fileID: 1126424197525717226, guid: 2b76ccb8a4504484e939444d20d98d95, type: 3}
      propertyPath: m_Enabled
      value: 0
      objectReference: {fileID: 0}
    - target: {fileID: 1886452440808238766, guid: 2b76ccb8a4504484e939444d20d98d95, type: 3}
      propertyPath: m_Mesh
      value: 
      objectReference: {fileID: 0}
    - target: {fileID: 1886452440808238800, guid: 2b76ccb8a4504484e939444d20d98d95, type: 3}
      propertyPath: m_textAlignment
      value: 65535
      objectReference: {fileID: 0}
    - target: {fileID: 1886452440808238800, guid: 2b76ccb8a4504484e939444d20d98d95, type: 3}
      propertyPath: m_TextStyleHashCode
      value: -1183493901
      objectReference: {fileID: 0}
    - target: {fileID: 1886452440808238800, guid: 2b76ccb8a4504484e939444d20d98d95, type: 3}
      propertyPath: m_VerticalAlignment
      value: 512
      objectReference: {fileID: 0}
    - target: {fileID: 1886452440808238800, guid: 2b76ccb8a4504484e939444d20d98d95, type: 3}
      propertyPath: m_HorizontalAlignment
      value: 2
      objectReference: {fileID: 0}
    - target: {fileID: 1982063368072600394, guid: 2b76ccb8a4504484e939444d20d98d95, type: 3}
      propertyPath: m_Mesh
      value: 
      objectReference: {fileID: 0}
    - target: {fileID: 2708467136241906993, guid: 2b76ccb8a4504484e939444d20d98d95, type: 3}
      propertyPath: m_textAlignment
      value: 65535
      objectReference: {fileID: 0}
    - target: {fileID: 2708467136241906993, guid: 2b76ccb8a4504484e939444d20d98d95, type: 3}
      propertyPath: m_TextStyleHashCode
      value: -1183493901
      objectReference: {fileID: 0}
    - target: {fileID: 2708467136241906993, guid: 2b76ccb8a4504484e939444d20d98d95, type: 3}
      propertyPath: m_VerticalAlignment
      value: 512
      objectReference: {fileID: 0}
    - target: {fileID: 2708467136241906993, guid: 2b76ccb8a4504484e939444d20d98d95, type: 3}
      propertyPath: m_HorizontalAlignment
      value: 2
      objectReference: {fileID: 0}
    - target: {fileID: 4316553457508561126, guid: 2b76ccb8a4504484e939444d20d98d95, type: 3}
      propertyPath: m_RootOrder
      value: 0
      objectReference: {fileID: 0}
    - target: {fileID: 4316553457508561126, guid: 2b76ccb8a4504484e939444d20d98d95, type: 3}
      propertyPath: m_LocalPosition.x
      value: 0.3172
      objectReference: {fileID: 0}
    - target: {fileID: 4316553457508561126, guid: 2b76ccb8a4504484e939444d20d98d95, type: 3}
      propertyPath: m_LocalPosition.y
      value: -0.2937
      objectReference: {fileID: 0}
    - target: {fileID: 4316553457508561126, guid: 2b76ccb8a4504484e939444d20d98d95, type: 3}
      propertyPath: m_LocalPosition.z
      value: 1.271
      objectReference: {fileID: 0}
    - target: {fileID: 4316553457508561126, guid: 2b76ccb8a4504484e939444d20d98d95, type: 3}
      propertyPath: m_LocalRotation.w
      value: 1
      objectReference: {fileID: 0}
    - target: {fileID: 4316553457508561126, guid: 2b76ccb8a4504484e939444d20d98d95, type: 3}
      propertyPath: m_LocalRotation.x
      value: -0
      objectReference: {fileID: 0}
    - target: {fileID: 4316553457508561126, guid: 2b76ccb8a4504484e939444d20d98d95, type: 3}
      propertyPath: m_LocalRotation.y
      value: -0
      objectReference: {fileID: 0}
    - target: {fileID: 4316553457508561126, guid: 2b76ccb8a4504484e939444d20d98d95, type: 3}
      propertyPath: m_LocalRotation.z
      value: -0
      objectReference: {fileID: 0}
    - target: {fileID: 4316553457508561126, guid: 2b76ccb8a4504484e939444d20d98d95, type: 3}
      propertyPath: m_LocalEulerAnglesHint.x
      value: 0
      objectReference: {fileID: 0}
    - target: {fileID: 4316553457508561126, guid: 2b76ccb8a4504484e939444d20d98d95, type: 3}
      propertyPath: m_LocalEulerAnglesHint.y
      value: 0
      objectReference: {fileID: 0}
    - target: {fileID: 4316553457508561126, guid: 2b76ccb8a4504484e939444d20d98d95, type: 3}
      propertyPath: m_LocalEulerAnglesHint.z
      value: 0
      objectReference: {fileID: 0}
    - target: {fileID: 4660031987200591699, guid: 2b76ccb8a4504484e939444d20d98d95, type: 3}
      propertyPath: additionalOffset.y
      value: -0.1
      objectReference: {fileID: 0}
    - target: {fileID: 4660031987200591699, guid: 2b76ccb8a4504484e939444d20d98d95, type: 3}
      propertyPath: additionalOffset.z
      value: 0.05
      objectReference: {fileID: 0}
    - target: {fileID: 4958790455664890529, guid: 2b76ccb8a4504484e939444d20d98d95, type: 3}
      propertyPath: m_Enabled
      value: 1
      objectReference: {fileID: 0}
    - target: {fileID: 4958790455664890529, guid: 2b76ccb8a4504484e939444d20d98d95, type: 3}
      propertyPath: m_Positions.Array.data[0].x
      value: 0.4037695
      objectReference: {fileID: 0}
    - target: {fileID: 4958790455664890529, guid: 2b76ccb8a4504484e939444d20d98d95, type: 3}
      propertyPath: m_Positions.Array.data[0].y
      value: -0.38902384
      objectReference: {fileID: 0}
    - target: {fileID: 4958790455664890529, guid: 2b76ccb8a4504484e939444d20d98d95, type: 3}
      propertyPath: m_Positions.Array.data[0].z
      value: 1.297631
      objectReference: {fileID: 0}
    - target: {fileID: 4958790455664890529, guid: 2b76ccb8a4504484e939444d20d98d95, type: 3}
      propertyPath: m_Positions.Array.data[1].x
      value: 0.4037695
      objectReference: {fileID: 0}
    - target: {fileID: 4958790455664890529, guid: 2b76ccb8a4504484e939444d20d98d95, type: 3}
      propertyPath: m_Positions.Array.data[1].y
      value: -0.35361588
      objectReference: {fileID: 0}
    - target: {fileID: 4958790455664890529, guid: 2b76ccb8a4504484e939444d20d98d95, type: 3}
      propertyPath: m_Positions.Array.data[1].z
      value: 1.297631
      objectReference: {fileID: 0}
    - target: {fileID: 4958790456314194571, guid: 2b76ccb8a4504484e939444d20d98d95, type: 3}
      propertyPath: m_Enabled
      value: 1
      objectReference: {fileID: 0}
    - target: {fileID: 4958790456314194571, guid: 2b76ccb8a4504484e939444d20d98d95, type: 3}
      propertyPath: m_Positions.Array.data[0].x
      value: 0.37186947
      objectReference: {fileID: 0}
    - target: {fileID: 4958790456314194571, guid: 2b76ccb8a4504484e939444d20d98d95, type: 3}
      propertyPath: m_Positions.Array.data[0].y
      value: -0.38902384
      objectReference: {fileID: 0}
    - target: {fileID: 4958790456314194571, guid: 2b76ccb8a4504484e939444d20d98d95, type: 3}
      propertyPath: m_Positions.Array.data[0].z
      value: 1.297631
      objectReference: {fileID: 0}
    - target: {fileID: 4958790456314194571, guid: 2b76ccb8a4504484e939444d20d98d95, type: 3}
      propertyPath: m_Positions.Array.data[1].x
      value: 0.37186947
      objectReference: {fileID: 0}
    - target: {fileID: 4958790456314194571, guid: 2b76ccb8a4504484e939444d20d98d95, type: 3}
      propertyPath: m_Positions.Array.data[1].y
      value: -0.35361588
      objectReference: {fileID: 0}
    - target: {fileID: 4958790456314194571, guid: 2b76ccb8a4504484e939444d20d98d95, type: 3}
      propertyPath: m_Positions.Array.data[1].z
      value: 1.297631
      objectReference: {fileID: 0}
    - target: {fileID: 4958790456594726731, guid: 2b76ccb8a4504484e939444d20d98d95, type: 3}
      propertyPath: m_Enabled
      value: 1
      objectReference: {fileID: 0}
    - target: {fileID: 4958790456594726731, guid: 2b76ccb8a4504484e939444d20d98d95, type: 3}
      propertyPath: m_Positions.Array.data[0].x
      value: 0.4037695
      objectReference: {fileID: 0}
    - target: {fileID: 4958790456594726731, guid: 2b76ccb8a4504484e939444d20d98d95, type: 3}
      propertyPath: m_Positions.Array.data[0].y
      value: -0.38901678
      objectReference: {fileID: 0}
    - target: {fileID: 4958790456594726731, guid: 2b76ccb8a4504484e939444d20d98d95, type: 3}
      propertyPath: m_Positions.Array.data[0].z
      value: 1.298631
      objectReference: {fileID: 0}
    - target: {fileID: 4958790456594726731, guid: 2b76ccb8a4504484e939444d20d98d95, type: 3}
      propertyPath: m_Positions.Array.data[1].x
      value: 0.4037695
      objectReference: {fileID: 0}
    - target: {fileID: 4958790456594726731, guid: 2b76ccb8a4504484e939444d20d98d95, type: 3}
      propertyPath: m_Positions.Array.data[1].y
      value: -0.38429666
      objectReference: {fileID: 0}
    - target: {fileID: 4958790456594726731, guid: 2b76ccb8a4504484e939444d20d98d95, type: 3}
      propertyPath: m_Positions.Array.data[1].z
      value: 1.298631
      objectReference: {fileID: 0}
    - target: {fileID: 4958790456594726731, guid: 2b76ccb8a4504484e939444d20d98d95, type: 3}
      propertyPath: m_Positions.Array.data[2].x
      value: 0.4037695
      objectReference: {fileID: 0}
    - target: {fileID: 4958790456594726731, guid: 2b76ccb8a4504484e939444d20d98d95, type: 3}
      propertyPath: m_Positions.Array.data[2].y
      value: -0.37957653
      objectReference: {fileID: 0}
    - target: {fileID: 4958790456594726731, guid: 2b76ccb8a4504484e939444d20d98d95, type: 3}
      propertyPath: m_Positions.Array.data[2].z
      value: 1.298631
      objectReference: {fileID: 0}
    - target: {fileID: 4958790456594726731, guid: 2b76ccb8a4504484e939444d20d98d95, type: 3}
      propertyPath: m_Positions.Array.data[3].x
      value: 0.4037695
      objectReference: {fileID: 0}
    - target: {fileID: 4958790456594726731, guid: 2b76ccb8a4504484e939444d20d98d95, type: 3}
      propertyPath: m_Positions.Array.data[3].y
      value: -0.3748564
      objectReference: {fileID: 0}
    - target: {fileID: 4958790456594726731, guid: 2b76ccb8a4504484e939444d20d98d95, type: 3}
      propertyPath: m_Positions.Array.data[3].z
      value: 1.298631
      objectReference: {fileID: 0}
    - target: {fileID: 4958790456594726731, guid: 2b76ccb8a4504484e939444d20d98d95, type: 3}
      propertyPath: m_Positions.Array.data[4].x
      value: 0.4037695
      objectReference: {fileID: 0}
    - target: {fileID: 4958790456594726731, guid: 2b76ccb8a4504484e939444d20d98d95, type: 3}
      propertyPath: m_Positions.Array.data[4].y
      value: -0.3701363
      objectReference: {fileID: 0}
    - target: {fileID: 4958790456594726731, guid: 2b76ccb8a4504484e939444d20d98d95, type: 3}
      propertyPath: m_Positions.Array.data[4].z
      value: 1.298631
      objectReference: {fileID: 0}
    - target: {fileID: 4958790456594726731, guid: 2b76ccb8a4504484e939444d20d98d95, type: 3}
      propertyPath: m_Positions.Array.data[5].x
      value: 0.4037695
      objectReference: {fileID: 0}
    - target: {fileID: 4958790456594726731, guid: 2b76ccb8a4504484e939444d20d98d95, type: 3}
      propertyPath: m_Positions.Array.data[5].y
      value: -0.36541617
      objectReference: {fileID: 0}
    - target: {fileID: 4958790456594726731, guid: 2b76ccb8a4504484e939444d20d98d95, type: 3}
      propertyPath: m_Positions.Array.data[5].z
      value: 1.298631
      objectReference: {fileID: 0}
    - target: {fileID: 4958790456594726731, guid: 2b76ccb8a4504484e939444d20d98d95, type: 3}
      propertyPath: m_Positions.Array.data[6].x
      value: 0.4037695
      objectReference: {fileID: 0}
    - target: {fileID: 4958790456594726731, guid: 2b76ccb8a4504484e939444d20d98d95, type: 3}
      propertyPath: m_Positions.Array.data[6].y
      value: -0.36069608
      objectReference: {fileID: 0}
    - target: {fileID: 4958790456594726731, guid: 2b76ccb8a4504484e939444d20d98d95, type: 3}
      propertyPath: m_Positions.Array.data[6].z
      value: 1.298631
      objectReference: {fileID: 0}
    - target: {fileID: 4958790456594726731, guid: 2b76ccb8a4504484e939444d20d98d95, type: 3}
      propertyPath: m_Positions.Array.data[7].x
      value: 0.4037695
      objectReference: {fileID: 0}
    - target: {fileID: 4958790456594726731, guid: 2b76ccb8a4504484e939444d20d98d95, type: 3}
      propertyPath: m_Positions.Array.data[7].y
      value: -0.35597596
      objectReference: {fileID: 0}
    - target: {fileID: 4958790456594726731, guid: 2b76ccb8a4504484e939444d20d98d95, type: 3}
      propertyPath: m_Positions.Array.data[7].z
      value: 1.298631
      objectReference: {fileID: 0}
    - target: {fileID: 4958790456594726731, guid: 2b76ccb8a4504484e939444d20d98d95, type: 3}
      propertyPath: m_Positions.Array.data[8].x
      value: 0.4037695
      objectReference: {fileID: 0}
    - target: {fileID: 4958790456594726731, guid: 2b76ccb8a4504484e939444d20d98d95, type: 3}
      propertyPath: m_Positions.Array.data[8].y
      value: -0.35125583
      objectReference: {fileID: 0}
    - target: {fileID: 4958790456594726731, guid: 2b76ccb8a4504484e939444d20d98d95, type: 3}
      propertyPath: m_Positions.Array.data[8].z
      value: 1.298631
      objectReference: {fileID: 0}
    - target: {fileID: 4958790456594726731, guid: 2b76ccb8a4504484e939444d20d98d95, type: 3}
      propertyPath: m_Positions.Array.data[9].x
      value: 0.4037695
      objectReference: {fileID: 0}
    - target: {fileID: 4958790456594726731, guid: 2b76ccb8a4504484e939444d20d98d95, type: 3}
      propertyPath: m_Positions.Array.data[9].y
      value: -0.3465357
      objectReference: {fileID: 0}
    - target: {fileID: 4958790456594726731, guid: 2b76ccb8a4504484e939444d20d98d95, type: 3}
      propertyPath: m_Positions.Array.data[9].z
      value: 1.298631
      objectReference: {fileID: 0}
    - target: {fileID: 4958790456594726731, guid: 2b76ccb8a4504484e939444d20d98d95, type: 3}
      propertyPath: m_Positions.Array.data[10].x
      value: 0.4037695
      objectReference: {fileID: 0}
    - target: {fileID: 4958790456594726731, guid: 2b76ccb8a4504484e939444d20d98d95, type: 3}
      propertyPath: m_Positions.Array.data[10].y
      value: -0.3418156
      objectReference: {fileID: 0}
    - target: {fileID: 4958790456594726731, guid: 2b76ccb8a4504484e939444d20d98d95, type: 3}
      propertyPath: m_Positions.Array.data[10].z
      value: 1.298631
      objectReference: {fileID: 0}
    - target: {fileID: 4958790456594726731, guid: 2b76ccb8a4504484e939444d20d98d95, type: 3}
      propertyPath: m_Positions.Array.data[11].x
      value: 0.4037695
      objectReference: {fileID: 0}
    - target: {fileID: 4958790456594726731, guid: 2b76ccb8a4504484e939444d20d98d95, type: 3}
      propertyPath: m_Positions.Array.data[11].y
      value: -0.33709547
      objectReference: {fileID: 0}
    - target: {fileID: 4958790456594726731, guid: 2b76ccb8a4504484e939444d20d98d95, type: 3}
      propertyPath: m_Positions.Array.data[11].z
      value: 1.298631
      objectReference: {fileID: 0}
    - target: {fileID: 4958790456594726731, guid: 2b76ccb8a4504484e939444d20d98d95, type: 3}
      propertyPath: m_Positions.Array.data[12].x
      value: 0.4037695
      objectReference: {fileID: 0}
    - target: {fileID: 4958790456594726731, guid: 2b76ccb8a4504484e939444d20d98d95, type: 3}
      propertyPath: m_Positions.Array.data[12].y
      value: -0.33237535
      objectReference: {fileID: 0}
    - target: {fileID: 4958790456594726731, guid: 2b76ccb8a4504484e939444d20d98d95, type: 3}
      propertyPath: m_Positions.Array.data[12].z
      value: 1.298631
      objectReference: {fileID: 0}
    - target: {fileID: 4958790456594726731, guid: 2b76ccb8a4504484e939444d20d98d95, type: 3}
      propertyPath: m_Positions.Array.data[13].x
      value: 0.4037695
      objectReference: {fileID: 0}
    - target: {fileID: 4958790456594726731, guid: 2b76ccb8a4504484e939444d20d98d95, type: 3}
      propertyPath: m_Positions.Array.data[13].y
      value: -0.32765526
      objectReference: {fileID: 0}
    - target: {fileID: 4958790456594726731, guid: 2b76ccb8a4504484e939444d20d98d95, type: 3}
      propertyPath: m_Positions.Array.data[13].z
      value: 1.298631
      objectReference: {fileID: 0}
    - target: {fileID: 4958790456594726731, guid: 2b76ccb8a4504484e939444d20d98d95, type: 3}
      propertyPath: m_Positions.Array.data[14].x
      value: 0.4037695
      objectReference: {fileID: 0}
    - target: {fileID: 4958790456594726731, guid: 2b76ccb8a4504484e939444d20d98d95, type: 3}
      propertyPath: m_Positions.Array.data[14].y
      value: -0.3229351
      objectReference: {fileID: 0}
    - target: {fileID: 4958790456594726731, guid: 2b76ccb8a4504484e939444d20d98d95, type: 3}
      propertyPath: m_Positions.Array.data[14].z
      value: 1.298631
      objectReference: {fileID: 0}
    - target: {fileID: 4958790456594726731, guid: 2b76ccb8a4504484e939444d20d98d95, type: 3}
      propertyPath: m_Positions.Array.data[15].x
      value: 0.4037695
      objectReference: {fileID: 0}
    - target: {fileID: 4958790456594726731, guid: 2b76ccb8a4504484e939444d20d98d95, type: 3}
      propertyPath: m_Positions.Array.data[15].y
      value: -0.318215
      objectReference: {fileID: 0}
    - target: {fileID: 4958790456594726731, guid: 2b76ccb8a4504484e939444d20d98d95, type: 3}
      propertyPath: m_Positions.Array.data[15].z
      value: 1.298631
      objectReference: {fileID: 0}
    - target: {fileID: 4958790457541281633, guid: 2b76ccb8a4504484e939444d20d98d95, type: 3}
      propertyPath: m_Enabled
      value: 1
      objectReference: {fileID: 0}
    - target: {fileID: 4958790457541281633, guid: 2b76ccb8a4504484e939444d20d98d95, type: 3}
      propertyPath: m_Positions.Array.data[0].x
      value: 0.37186947
      objectReference: {fileID: 0}
    - target: {fileID: 4958790457541281633, guid: 2b76ccb8a4504484e939444d20d98d95, type: 3}
      propertyPath: m_Positions.Array.data[0].y
      value: -0.38901678
      objectReference: {fileID: 0}
    - target: {fileID: 4958790457541281633, guid: 2b76ccb8a4504484e939444d20d98d95, type: 3}
      propertyPath: m_Positions.Array.data[0].z
      value: 1.298631
      objectReference: {fileID: 0}
    - target: {fileID: 4958790457541281633, guid: 2b76ccb8a4504484e939444d20d98d95, type: 3}
      propertyPath: m_Positions.Array.data[1].x
      value: 0.37186947
      objectReference: {fileID: 0}
    - target: {fileID: 4958790457541281633, guid: 2b76ccb8a4504484e939444d20d98d95, type: 3}
      propertyPath: m_Positions.Array.data[1].y
      value: -0.38429666
      objectReference: {fileID: 0}
    - target: {fileID: 4958790457541281633, guid: 2b76ccb8a4504484e939444d20d98d95, type: 3}
      propertyPath: m_Positions.Array.data[1].z
      value: 1.298631
      objectReference: {fileID: 0}
    - target: {fileID: 4958790457541281633, guid: 2b76ccb8a4504484e939444d20d98d95, type: 3}
      propertyPath: m_Positions.Array.data[2].x
      value: 0.37186947
      objectReference: {fileID: 0}
    - target: {fileID: 4958790457541281633, guid: 2b76ccb8a4504484e939444d20d98d95, type: 3}
      propertyPath: m_Positions.Array.data[2].y
      value: -0.37957653
      objectReference: {fileID: 0}
    - target: {fileID: 4958790457541281633, guid: 2b76ccb8a4504484e939444d20d98d95, type: 3}
      propertyPath: m_Positions.Array.data[2].z
      value: 1.298631
      objectReference: {fileID: 0}
    - target: {fileID: 4958790457541281633, guid: 2b76ccb8a4504484e939444d20d98d95, type: 3}
      propertyPath: m_Positions.Array.data[3].x
      value: 0.37186947
      objectReference: {fileID: 0}
    - target: {fileID: 4958790457541281633, guid: 2b76ccb8a4504484e939444d20d98d95, type: 3}
      propertyPath: m_Positions.Array.data[3].y
      value: -0.3748564
      objectReference: {fileID: 0}
    - target: {fileID: 4958790457541281633, guid: 2b76ccb8a4504484e939444d20d98d95, type: 3}
      propertyPath: m_Positions.Array.data[3].z
      value: 1.298631
      objectReference: {fileID: 0}
    - target: {fileID: 4958790457541281633, guid: 2b76ccb8a4504484e939444d20d98d95, type: 3}
      propertyPath: m_Positions.Array.data[4].x
      value: 0.37186947
      objectReference: {fileID: 0}
    - target: {fileID: 4958790457541281633, guid: 2b76ccb8a4504484e939444d20d98d95, type: 3}
      propertyPath: m_Positions.Array.data[4].y
      value: -0.3701363
      objectReference: {fileID: 0}
    - target: {fileID: 4958790457541281633, guid: 2b76ccb8a4504484e939444d20d98d95, type: 3}
      propertyPath: m_Positions.Array.data[4].z
      value: 1.298631
      objectReference: {fileID: 0}
    - target: {fileID: 4958790457541281633, guid: 2b76ccb8a4504484e939444d20d98d95, type: 3}
      propertyPath: m_Positions.Array.data[5].x
      value: 0.37186947
      objectReference: {fileID: 0}
    - target: {fileID: 4958790457541281633, guid: 2b76ccb8a4504484e939444d20d98d95, type: 3}
      propertyPath: m_Positions.Array.data[5].y
      value: -0.36541617
      objectReference: {fileID: 0}
    - target: {fileID: 4958790457541281633, guid: 2b76ccb8a4504484e939444d20d98d95, type: 3}
      propertyPath: m_Positions.Array.data[5].z
      value: 1.298631
      objectReference: {fileID: 0}
    - target: {fileID: 4958790457541281633, guid: 2b76ccb8a4504484e939444d20d98d95, type: 3}
      propertyPath: m_Positions.Array.data[6].x
      value: 0.37186947
      objectReference: {fileID: 0}
    - target: {fileID: 4958790457541281633, guid: 2b76ccb8a4504484e939444d20d98d95, type: 3}
      propertyPath: m_Positions.Array.data[6].y
      value: -0.36069608
      objectReference: {fileID: 0}
    - target: {fileID: 4958790457541281633, guid: 2b76ccb8a4504484e939444d20d98d95, type: 3}
      propertyPath: m_Positions.Array.data[6].z
      value: 1.298631
      objectReference: {fileID: 0}
    - target: {fileID: 4958790457541281633, guid: 2b76ccb8a4504484e939444d20d98d95, type: 3}
      propertyPath: m_Positions.Array.data[7].x
      value: 0.37186947
      objectReference: {fileID: 0}
    - target: {fileID: 4958790457541281633, guid: 2b76ccb8a4504484e939444d20d98d95, type: 3}
      propertyPath: m_Positions.Array.data[7].y
      value: -0.35597596
      objectReference: {fileID: 0}
    - target: {fileID: 4958790457541281633, guid: 2b76ccb8a4504484e939444d20d98d95, type: 3}
      propertyPath: m_Positions.Array.data[7].z
      value: 1.298631
      objectReference: {fileID: 0}
    - target: {fileID: 4958790457541281633, guid: 2b76ccb8a4504484e939444d20d98d95, type: 3}
      propertyPath: m_Positions.Array.data[8].x
      value: 0.37186947
      objectReference: {fileID: 0}
    - target: {fileID: 4958790457541281633, guid: 2b76ccb8a4504484e939444d20d98d95, type: 3}
      propertyPath: m_Positions.Array.data[8].y
      value: -0.35125583
      objectReference: {fileID: 0}
    - target: {fileID: 4958790457541281633, guid: 2b76ccb8a4504484e939444d20d98d95, type: 3}
      propertyPath: m_Positions.Array.data[8].z
      value: 1.298631
      objectReference: {fileID: 0}
    - target: {fileID: 4958790457541281633, guid: 2b76ccb8a4504484e939444d20d98d95, type: 3}
      propertyPath: m_Positions.Array.data[9].x
      value: 0.37186947
      objectReference: {fileID: 0}
    - target: {fileID: 4958790457541281633, guid: 2b76ccb8a4504484e939444d20d98d95, type: 3}
      propertyPath: m_Positions.Array.data[9].y
      value: -0.3465357
      objectReference: {fileID: 0}
    - target: {fileID: 4958790457541281633, guid: 2b76ccb8a4504484e939444d20d98d95, type: 3}
      propertyPath: m_Positions.Array.data[9].z
      value: 1.298631
      objectReference: {fileID: 0}
    - target: {fileID: 4958790457541281633, guid: 2b76ccb8a4504484e939444d20d98d95, type: 3}
      propertyPath: m_Positions.Array.data[10].x
      value: 0.37186947
      objectReference: {fileID: 0}
    - target: {fileID: 4958790457541281633, guid: 2b76ccb8a4504484e939444d20d98d95, type: 3}
      propertyPath: m_Positions.Array.data[10].y
      value: -0.3418156
      objectReference: {fileID: 0}
    - target: {fileID: 4958790457541281633, guid: 2b76ccb8a4504484e939444d20d98d95, type: 3}
      propertyPath: m_Positions.Array.data[10].z
      value: 1.298631
      objectReference: {fileID: 0}
    - target: {fileID: 4958790457541281633, guid: 2b76ccb8a4504484e939444d20d98d95, type: 3}
      propertyPath: m_Positions.Array.data[11].x
      value: 0.37186947
      objectReference: {fileID: 0}
    - target: {fileID: 4958790457541281633, guid: 2b76ccb8a4504484e939444d20d98d95, type: 3}
      propertyPath: m_Positions.Array.data[11].y
      value: -0.33709547
      objectReference: {fileID: 0}
    - target: {fileID: 4958790457541281633, guid: 2b76ccb8a4504484e939444d20d98d95, type: 3}
      propertyPath: m_Positions.Array.data[11].z
      value: 1.298631
      objectReference: {fileID: 0}
    - target: {fileID: 4958790457541281633, guid: 2b76ccb8a4504484e939444d20d98d95, type: 3}
      propertyPath: m_Positions.Array.data[12].x
      value: 0.37186947
      objectReference: {fileID: 0}
    - target: {fileID: 4958790457541281633, guid: 2b76ccb8a4504484e939444d20d98d95, type: 3}
      propertyPath: m_Positions.Array.data[12].y
      value: -0.33237535
      objectReference: {fileID: 0}
    - target: {fileID: 4958790457541281633, guid: 2b76ccb8a4504484e939444d20d98d95, type: 3}
      propertyPath: m_Positions.Array.data[12].z
      value: 1.298631
      objectReference: {fileID: 0}
    - target: {fileID: 4958790457541281633, guid: 2b76ccb8a4504484e939444d20d98d95, type: 3}
      propertyPath: m_Positions.Array.data[13].x
      value: 0.37186947
      objectReference: {fileID: 0}
    - target: {fileID: 4958790457541281633, guid: 2b76ccb8a4504484e939444d20d98d95, type: 3}
      propertyPath: m_Positions.Array.data[13].y
      value: -0.32765526
      objectReference: {fileID: 0}
    - target: {fileID: 4958790457541281633, guid: 2b76ccb8a4504484e939444d20d98d95, type: 3}
      propertyPath: m_Positions.Array.data[13].z
      value: 1.298631
      objectReference: {fileID: 0}
    - target: {fileID: 4958790457541281633, guid: 2b76ccb8a4504484e939444d20d98d95, type: 3}
      propertyPath: m_Positions.Array.data[14].x
      value: 0.37186947
      objectReference: {fileID: 0}
    - target: {fileID: 4958790457541281633, guid: 2b76ccb8a4504484e939444d20d98d95, type: 3}
      propertyPath: m_Positions.Array.data[14].y
      value: -0.3229351
      objectReference: {fileID: 0}
    - target: {fileID: 4958790457541281633, guid: 2b76ccb8a4504484e939444d20d98d95, type: 3}
      propertyPath: m_Positions.Array.data[14].z
      value: 1.298631
      objectReference: {fileID: 0}
    - target: {fileID: 4958790457541281633, guid: 2b76ccb8a4504484e939444d20d98d95, type: 3}
      propertyPath: m_Positions.Array.data[15].x
      value: 0.37186947
      objectReference: {fileID: 0}
    - target: {fileID: 4958790457541281633, guid: 2b76ccb8a4504484e939444d20d98d95, type: 3}
      propertyPath: m_Positions.Array.data[15].y
      value: -0.318215
      objectReference: {fileID: 0}
    - target: {fileID: 4958790457541281633, guid: 2b76ccb8a4504484e939444d20d98d95, type: 3}
      propertyPath: m_Positions.Array.data[15].z
      value: 1.298631
      objectReference: {fileID: 0}
    - target: {fileID: 7734322803540208809, guid: 2b76ccb8a4504484e939444d20d98d95, type: 3}
      propertyPath: m_textAlignment
      value: 65535
      objectReference: {fileID: 0}
    - target: {fileID: 7734322803540208809, guid: 2b76ccb8a4504484e939444d20d98d95, type: 3}
      propertyPath: m_TextStyleHashCode
      value: -1183493901
      objectReference: {fileID: 0}
    - target: {fileID: 7734322803540208809, guid: 2b76ccb8a4504484e939444d20d98d95, type: 3}
      propertyPath: m_VerticalAlignment
      value: 512
      objectReference: {fileID: 0}
    - target: {fileID: 7734322803540208809, guid: 2b76ccb8a4504484e939444d20d98d95, type: 3}
      propertyPath: m_HorizontalAlignment
      value: 2
      objectReference: {fileID: 0}
    - target: {fileID: 7734322803540208855, guid: 2b76ccb8a4504484e939444d20d98d95, type: 3}
      propertyPath: m_Mesh
      value: 
      objectReference: {fileID: 0}
    - target: {fileID: 8971993408684970020, guid: 2b76ccb8a4504484e939444d20d98d95, type: 3}
      propertyPath: m_Mesh
      value: 
      objectReference: {fileID: 0}
    - target: {fileID: 8971993408684970074, guid: 2b76ccb8a4504484e939444d20d98d95, type: 3}
      propertyPath: m_textAlignment
      value: 65535
      objectReference: {fileID: 0}
    - target: {fileID: 8971993408684970074, guid: 2b76ccb8a4504484e939444d20d98d95, type: 3}
      propertyPath: m_TextStyleHashCode
      value: -1183493901
      objectReference: {fileID: 0}
    - target: {fileID: 8971993408684970074, guid: 2b76ccb8a4504484e939444d20d98d95, type: 3}
      propertyPath: m_VerticalAlignment
      value: 512
      objectReference: {fileID: 0}
    - target: {fileID: 8971993408684970074, guid: 2b76ccb8a4504484e939444d20d98d95, type: 3}
      propertyPath: m_HorizontalAlignment
      value: 2
      objectReference: {fileID: 0}
    m_RemovedComponents: []
  m_SourcePrefab: {fileID: 100100000, guid: 2b76ccb8a4504484e939444d20d98d95, type: 3}
