%YAML 1.1
%TAG !u! tag:unity3d.com,2011:
--- !u!1001 &1155502599416823555
PrefabInstance:
  m_ObjectHideFlags: 0
  serializedVersion: 2
  m_Modification:
    m_TransformParent: {fileID: 0}
    m_Modifications:
    - target: {fileID: 2204069621426241315, guid: 3f1f46cbecbe08e46a303ccfdb5b498a, type: 3}
      propertyPath: m_Name
      value: PressableButtonHoloLens2_48x48
      objectReference: {fileID: 0}
    - target: {fileID: 2204069621878992557, guid: 3f1f46cbecbe08e46a303ccfdb5b498a, type: 3}
      propertyPath: m_Mesh
      value: 
      objectReference: {fileID: 0}
    - target: {fileID: 2204069621878992595, guid: 3f1f46cbecbe08e46a303ccfdb5b498a, type: 3}
      propertyPath: m_text
      value: 48x48mm
      objectReference: {fileID: 0}
    - target: {fileID: 2204069621878992595, guid: 3f1f46cbecbe08e46a303ccfdb5b498a, type: 3}
      propertyPath: m_textAlignment
      value: 65535
      objectReference: {fileID: 0}
    - target: {fileID: 2204069621878992595, guid: 3f1f46cbecbe08e46a303ccfdb5b498a, type: 3}
      propertyPath: m_TextStyleHashCode
      value: -1183493901
      objectReference: {fileID: 0}
    - target: {fileID: 2204069621878992595, guid: 3f1f46cbecbe08e46a303ccfdb5b498a, type: 3}
      propertyPath: m_VerticalAlignment
      value: 512
      objectReference: {fileID: 0}
    - target: {fileID: 2204069621878992595, guid: 3f1f46cbecbe08e46a303ccfdb5b498a, type: 3}
      propertyPath: m_HorizontalAlignment
      value: 2
      objectReference: {fileID: 0}
    - target: {fileID: 2204069621878992595, guid: 3f1f46cbecbe08e46a303ccfdb5b498a, type: 3}
      propertyPath: m_havePropertiesChanged
      value: 1
      objectReference: {fileID: 0}
    - target: {fileID: 2204069621878992595, guid: 3f1f46cbecbe08e46a303ccfdb5b498a, type: 3}
      propertyPath: m_isInputParsingRequired
      value: 1
      objectReference: {fileID: 0}
    - target: {fileID: 2204069621878992595, guid: 3f1f46cbecbe08e46a303ccfdb5b498a, type: 3}
      propertyPath: m_textInfo.characterCount
      value: 7
      objectReference: {fileID: 0}
    - target: {fileID: 2204069623020599746, guid: 3f1f46cbecbe08e46a303ccfdb5b498a, type: 3}
      propertyPath: m_RootOrder
      value: 0
      objectReference: {fileID: 0}
    - target: {fileID: 2204069623020599746, guid: 3f1f46cbecbe08e46a303ccfdb5b498a, type: 3}
      propertyPath: m_LocalScale.x
      value: 1.5
      objectReference: {fileID: 0}
    - target: {fileID: 2204069623020599746, guid: 3f1f46cbecbe08e46a303ccfdb5b498a, type: 3}
      propertyPath: m_LocalScale.y
      value: 1.5
      objectReference: {fileID: 0}
    - target: {fileID: 2204069623020599746, guid: 3f1f46cbecbe08e46a303ccfdb5b498a, type: 3}
      propertyPath: m_LocalPosition.x
      value: -0.1245
      objectReference: {fileID: 0}
    - target: {fileID: 2204069623020599746, guid: 3f1f46cbecbe08e46a303ccfdb5b498a, type: 3}
      propertyPath: m_LocalPosition.y
      value: -0.05319999
      objectReference: {fileID: 0}
    - target: {fileID: 2204069623020599746, guid: 3f1f46cbecbe08e46a303ccfdb5b498a, type: 3}
      propertyPath: m_LocalPosition.z
      value: 0
      objectReference: {fileID: 0}
    - target: {fileID: 2204069623020599746, guid: 3f1f46cbecbe08e46a303ccfdb5b498a, type: 3}
      propertyPath: m_LocalRotation.w
      value: 1
      objectReference: {fileID: 0}
    - target: {fileID: 2204069623020599746, guid: 3f1f46cbecbe08e46a303ccfdb5b498a, type: 3}
      propertyPath: m_LocalRotation.x
      value: -0
      objectReference: {fileID: 0}
    - target: {fileID: 2204069623020599746, guid: 3f1f46cbecbe08e46a303ccfdb5b498a, type: 3}
      propertyPath: m_LocalRotation.y
      value: -0
      objectReference: {fileID: 0}
    - target: {fileID: 2204069623020599746, guid: 3f1f46cbecbe08e46a303ccfdb5b498a, type: 3}
      propertyPath: m_LocalRotation.z
      value: -0
      objectReference: {fileID: 0}
    - target: {fileID: 2204069623020599746, guid: 3f1f46cbecbe08e46a303ccfdb5b498a, type: 3}
      propertyPath: m_LocalEulerAnglesHint.x
      value: 0
      objectReference: {fileID: 0}
    - target: {fileID: 2204069623020599746, guid: 3f1f46cbecbe08e46a303ccfdb5b498a, type: 3}
      propertyPath: m_LocalEulerAnglesHint.y
      value: 0
      objectReference: {fileID: 0}
    - target: {fileID: 2204069623020599746, guid: 3f1f46cbecbe08e46a303ccfdb5b498a, type: 3}
      propertyPath: m_LocalEulerAnglesHint.z
      value: 0
      objectReference: {fileID: 0}
    - target: {fileID: 4607504470098667674, guid: 3f1f46cbecbe08e46a303ccfdb5b498a, type: 3}
      propertyPath: m_Mesh
      value: 
      objectReference: {fileID: 0}
    - target: {fileID: 7060011145322376313, guid: 3f1f46cbecbe08e46a303ccfdb5b498a, type: 3}
      propertyPath: m_textAlignment
      value: 65535
      objectReference: {fileID: 0}
    - target: {fileID: 7060011145322376313, guid: 3f1f46cbecbe08e46a303ccfdb5b498a, type: 3}
      propertyPath: m_TextStyleHashCode
      value: -1183493901
      objectReference: {fileID: 0}
    - target: {fileID: 7060011145322376313, guid: 3f1f46cbecbe08e46a303ccfdb5b498a, type: 3}
      propertyPath: m_VerticalAlignment
      value: 512
      objectReference: {fileID: 0}
    - target: {fileID: 7060011145322376313, guid: 3f1f46cbecbe08e46a303ccfdb5b498a, type: 3}
      propertyPath: m_HorizontalAlignment
      value: 2
      objectReference: {fileID: 0}
    - target: {fileID: 7060011145322376313, guid: 3f1f46cbecbe08e46a303ccfdb5b498a, type: 3}
      propertyPath: m_havePropertiesChanged
      value: 1
      objectReference: {fileID: 0}
    - target: {fileID: 7060011145322376313, guid: 3f1f46cbecbe08e46a303ccfdb5b498a, type: 3}
      propertyPath: m_isInputParsingRequired
      value: 1
      objectReference: {fileID: 0}
    - target: {fileID: 8779034279059886464, guid: 3f1f46cbecbe08e46a303ccfdb5b498a, type: 3}
      propertyPath: OnClick.m_PersistentCalls.m_Calls.Array.data[0].m_Target
      value: 
      objectReference: {fileID: 0}
    - target: {fileID: 8779034279059886464, guid: 3f1f46cbecbe08e46a303ccfdb5b498a, type: 3}
      propertyPath: OnClick.m_PersistentCalls.m_Calls.Array.data[0].m_MethodName
      value: Increment
      objectReference: {fileID: 0}
    m_RemovedComponents: []
  m_SourcePrefab: {fileID: 100100000, guid: 3f1f46cbecbe08e46a303ccfdb5b498a, type: 3}
